Heart Failure Analysis Project
…
    5209
30
0

    4540
35
0

df %>%
  filter(anaemia == 1 & high_blood_pressure == 1) %>%
  select(age, anaemia, ejection_fraction, high_blood_pressure)

## # A tibble: 48 x 4
##      age anaemia ejection_fraction high_blood_pressure
##    <dbl>   <dbl>             <dbl>               <dbl>
##  1    90       1                40                   1
##  2    80       1                35                   1
##  3    75       1                38                   1
##  4    50       1                38                   1
##  5    49       1                30                   1
##  6    70       1                25                   1
##  7    65       1                25                   1
##  8    65       1                30                   1
##  9    68       1                35                   1
## 10    95       1                40                   1
## #  with 38 more rows
…
